Exercise.sim/sim_1/behav/xsim/simulate.log
Vivado Simulator 2020.1
Time resolution is 1 ps
Write to matrix A
         14          20          14          19          20           6          16          10           1           9           4          20          11          16           5          11 
          3           3           6          10          19           7          17          18          10          19           6           4           3          19           0           9 
         14           2          12          15          17           8           2          10           6          10           3           0          12          20           5          18 
          9           8          14          17           3          19          14          12           2           3           8           5          17          18          13          19 
         17          17          19          13          10          11          10           5           6           8          16          12          15           1          15          17 
          5           7           7          15           4          18          11           4           0          14          19           3          10           9           7           6 
          1           1           5           7          10           8           9           7           9          11          10          18          19          18           0           6 
          4           5          20           2          19          16           4           2           0           1           4          19          16           3           0          12 
          4           1           9          16           4           5           2           4           2          11          15           4          12          17           3          13 
          3          18          13          15          16          16           3          19          13          15           9           4           6          11          19          14 
          1           6          18           5          13          11          17           8          13          13          11           5          20           4           9          12 
         13          20          13          12           3           1           5          16           0          18           5           2          15           8          14          15 
          1          16          13          14           1           5           7          18          17          16          11          18          19          16          15          15 
         10           4           7           4          16           1          16           1           1           2           4          16          20          14          15          20 
Write to matrix B
         12          15           9          11           8           1           6          20          15          15           5          19          11          11          17           5           2          18           1 
         13           6          14          12           6           9          11          15          12          20           4          16           8          12           5          20          13           9          10 
         19           0          15          15           9           3           4           2           0          15          17           7          18          15           7          14           9           1          18 
          4          14           2          17           2          19          10           1          12           8          14           9           6           3          10          13           9           3           1 
         10           6          13           2          11          16           5           0          18          12           0           4           3           3           3           0          13          20           2 
         16          18           1          14          10          20          13           2          13          10          14           2           5           4           4          18           9          13          19 
         14          17          19           6           3          11           4          16           2          19           1           5           8           1          17           6          18          14          11 
          1          13           6           7           7          16          13           4           7          15           6           8          10           0          12          13          15          18           0 
          0          14           7          12           4           2           8           3          15          15           9          17          16          17          16           6          10           4          19 
          1          20          13           3           5          13          18           2          10           8          20          11          16          17           9           5          20           8          13 
         15           3          20          18           2           4           8          13           1           4          10          20           2          17          12           5          17           1           4 
         19          14          12          18           8          13          18           2           5           9          18           9           1          15           6           2           3           3           6 
          1          17          12          20          16          15           5          13           7          15          11           1           8          12          10          11           3          19           8 
          7           9          15          18           8          13           2          15          18          19          12           3           7          14          18           1           8           8           2 
         10          18          19          11           0           2           9          10          16           3          17          16           3           5           5          18           3           1           9 
          4           3          13          18           2          10           3           6           9          12           0          11           1           5          16           5          17          12          16 
Read the Output
 1966	 2166	 2338	 2449	 1337	 2261	 1649	 1547	 1971	 2625	 1801	 1743	 1412	 1735	 1966	 1640	 2018	 1999	 1428	
 1144	 1809	 1787	 1614	  969	 1882	 1285	 1017	 1604	 2042	 1355	 1250	 1279	 1293	 1741	 1041	 1983	 1677	 1200	
 1147	 1663	 1696	 1976	 1073	 1751	 1082	 1128	 1777	 1995	 1407	 1313	 1214	 1350	 1734	 1192	 1604	 1695	 1198	
 1655	 2099	 2074	 2550	 1162	 2065	 1361	 1516	 1763	 2308	 1777	 1526	 1274	 1467	 1976	 1815	 1831	 1781	 1611	
 1975	 2077	 2374	 2555	 1194	 1818	 1592	 1576	 1755	 2298	 1874	 2060	 1415	 1843	 1888	 1884	 1942	 1742	 1764	
 1353	 1688	 1645	 1838	  836	 1621	 1242	 1114	 1267	 1566	 1530	 1306	  992	 1301	 1403	 1346	 1608	 1226	 1220	
 1181	 1698	 1661	 1909	 1054	 1703	 1211	 1008	 1318	 1766	 1505	 1065	 1005	 1480	 1507	  927	 1429	 1374	 1125	
 1512	 1247	 1475	 1745	 1110	 1522	 1038	  718	 1099	 1606	 1262	  877	  849	 1199	 1043	 1066	 1185	 1364	 1271	
  973	 1289	 1466	 1793	  758	 1390	  942	  937	 1163	 1421	 1344	 1112	  882	 1271	 1394	  946	 1348	 1029	  947	
 1609	 2195	 2193	 2320	 1146	 2122	 1748	 1238	 2120	 2325	 1959	 1933	 1509	 1684	 1825	 2000	 2179	 1768	 1768	
 1463	 1909	 2091	 2046	 1131	 1741	 1315	 1177	 1439	 2089	 1622	 1446	 1393	 1573	 1687	 1500	 1896	 1637	 1743	
 1245	 1839	 1966	 1992	  985	 1626	 1388	 1394	 1571	 2048	 1594	 1677	 1356	 1490	 1660	 1678	 1746	 1592	 1307	
 1593	 2381	 2426	 2753	 1233	 2124	 1849	 1483	 1910	 2510	 2234	 2004	 1613	 2090	 2135	 1898	 2123	 1669	 1825	
 1436	 1715	 2078	 2035	 1038	 1575	 1029	 1371	 1517	 1930	 1297	 1278	  878	 1313	 1640	 1079	 1414	 1629	 1207	
$stop called at time : 19475 ns : File "D:/Digital_Circuit/Exercise/Exercise.srcs/sim_1/new/tb_top_test.sv" Line 288
